%YAML 1.1
%TAG !u! tag:unity3d.com,2011:
--- !u!1 &2226476942061371977
GameObject:
  m_ObjectHideFlags: 0
  m_CorrespondingSourceObject: {fileID: 0}
  m_PrefabInstance: {fileID: 0}
  m_PrefabAsset: {fileID: 0}
  serializedVersion: 6
  m_Component:
  - component: {fileID: 3303060532835310571}
  m_Layer: 0
  m_Name: 2 paredes
  m_TagString: Untagged
  m_Icon: {fileID: 0}
  m_NavMeshLayer: 0
  m_StaticEditorFlags: 0
  m_IsActive: 1
--- !u!4 &3303060532835310571
Transform:
  m_ObjectHideFlags: 0
  m_CorrespondingSourceObject: {fileID: 0}
  m_PrefabInstance: {fileID: 0}
  m_PrefabAsset: {fileID: 0}
  m_GameObject: {fileID: 2226476942061371977}
  m_LocalRotation: {x: 0, y: 0, z: 0, w: 1}
  m_LocalPosition: {x: 26.965351, y: 40.28771, z: -23.460447}
  m_LocalScale: {x: 1, y: 1, z: 1}
  m_Children:
  - {fileID: 2163139385285171987}
  - {fileID: 2407017952747784250}
  m_Father: {fileID: 0}
  m_RootOrder: 0
  m_LocalEulerAnglesHint: {x: 0, y: 0, z: 0}
--- !u!1001 &5695319093151490853
PrefabInstance:
  m_ObjectHideFlags: 0
  serializedVersion: 2
  m_Modification:
    m_TransformParent: {fileID: 3303060532835310571}
    m_Modifications:
    - target: {fileID: 47801511122789366, guid: 09e68ef64ec97b84398fb5806ca68d90, type: 3}
      propertyPath: m_Mesh
      value: 
      objectReference: {fileID: 0}
    - target: {fileID: 70819479953546355, guid: 09e68ef64ec97b84398fb5806ca68d90, type: 3}
      propertyPath: m_Mesh
      value: 
      objectReference: {fileID: 0}
    - target: {fileID: 444430444012295145, guid: 09e68ef64ec97b84398fb5806ca68d90, type: 3}
      propertyPath: m_Mesh
      value: 
      objectReference: {fileID: 0}
    - target: {fileID: 541198899981690377, guid: 09e68ef64ec97b84398fb5806ca68d90, type: 3}
      propertyPath: m_Mesh
      value: 
      objectReference: {fileID: 0}
    - target: {fileID: 1060785314867407631, guid: 09e68ef64ec97b84398fb5806ca68d90, type: 3}
      propertyPath: m_Mesh
      value: 
      objectReference: {fileID: 0}
    - target: {fileID: 1237070708906975688, guid: 09e68ef64ec97b84398fb5806ca68d90, type: 3}
      propertyPath: m_Mesh
      value: 
      objectReference: {fileID: 0}
    - target: {fileID: 1632578509697476170, guid: 09e68ef64ec97b84398fb5806ca68d90, type: 3}
      propertyPath: m_Mesh
      value: 
      objectReference: {fileID: 0}
    - target: {fileID: 1761895029360525006, guid: 09e68ef64ec97b84398fb5806ca68d90, type: 3}
      propertyPath: m_Mesh
      value: 
      objectReference: {fileID: 0}
    - target: {fileID: 2309551244728742557, guid: 09e68ef64ec97b84398fb5806ca68d90, type: 3}
      propertyPath: m_Mesh
      value: 
      objectReference: {fileID: 0}
    - target: {fileID: 2428775196674691796, guid: 09e68ef64ec97b84398fb5806ca68d90, type: 3}
      propertyPath: m_Mesh
      value: 
      objectReference: {fileID: 0}
    - target: {fileID: 2593133312650469558, guid: 09e68ef64ec97b84398fb5806ca68d90, type: 3}
      propertyPath: m_Mesh
      value: 
      objectReference: {fileID: 0}
    - target: {fileID: 2683331274312702952, guid: 09e68ef64ec97b84398fb5806ca68d90, type: 3}
      propertyPath: m_Mesh
      value: 
      objectReference: {fileID: 0}
    - target: {fileID: 3344391245059772335, guid: 09e68ef64ec97b84398fb5806ca68d90, type: 3}
      propertyPath: m_Mesh
      value: 
      objectReference: {fileID: 0}
    - target: {fileID: 3362996391049572238, guid: 09e68ef64ec97b84398fb5806ca68d90, type: 3}
      propertyPath: m_Mesh
      value: 
      objectReference: {fileID: 0}
    - target: {fileID: 3436035171528533635, guid: 09e68ef64ec97b84398fb5806ca68d90, type: 3}
      propertyPath: m_Mesh
      value: 
      objectReference: {fileID: 0}
    - target: {fileID: 3757712375364850823, guid: 09e68ef64ec97b84398fb5806ca68d90, type: 3}
      propertyPath: m_Mesh
      value: 
      objectReference: {fileID: 0}
    - target: {fileID: 4012414254051491987, guid: 09e68ef64ec97b84398fb5806ca68d90, type: 3}
      propertyPath: m_Mesh
      value: 
      objectReference: {fileID: 0}
    - target: {fileID: 4670064486255298057, guid: 09e68ef64ec97b84398fb5806ca68d90, type: 3}
      propertyPath: m_Mesh
      value: 
      objectReference: {fileID: 0}
    - target: {fileID: 4786552619304022808, guid: 09e68ef64ec97b84398fb5806ca68d90, type: 3}
      propertyPath: m_Mesh
      value: 
      objectReference: {fileID: 0}
    - target: {fileID: 5094477869039055938, guid: 09e68ef64ec97b84398fb5806ca68d90, type: 3}
      propertyPath: m_Mesh
      value: 
      objectReference: {fileID: 0}
    - target: {fileID: 5104994659313044707, guid: 09e68ef64ec97b84398fb5806ca68d90, type: 3}
      propertyPath: m_Mesh
      value: 
      objectReference: {fileID: 0}
    - target: {fileID: 5170745761771056806, guid: 09e68ef64ec97b84398fb5806ca68d90, type: 3}
      propertyPath: m_Mesh
      value: 
      objectReference: {fileID: 0}
    - target: {fileID: 5495272362981263210, guid: 09e68ef64ec97b84398fb5806ca68d90, type: 3}
      propertyPath: m_Mesh
      value: 
      objectReference: {fileID: 0}
    - target: {fileID: 5800457077501005868, guid: 09e68ef64ec97b84398fb5806ca68d90, type: 3}
      propertyPath: m_Mesh
      value: 
      objectReference: {fileID: 0}
    - target: {fileID: 5840277309402921760, guid: 09e68ef64ec97b84398fb5806ca68d90, type: 3}
      propertyPath: m_Mesh
      value: 
      objectReference: {fileID: 0}
    - target: {fileID: 5840277309402921790, guid: 09e68ef64ec97b84398fb5806ca68d90, type: 3}
      propertyPath: m_Mesh
      value: 
      objectReference: {fileID: 0}
    - target: {fileID: 5840277309402921791, guid: 09e68ef64ec97b84398fb5806ca68d90, type: 3}
      propertyPath: m_Mesh
      value: 
      objectReference: {fileID: 0}
    - target: {fileID: 5840277309765924918, guid: 09e68ef64ec97b84398fb5806ca68d90, type: 3}
      propertyPath: m_RootOrder
      value: 0
      objectReference: {fileID: 0}
    - target: {fileID: 5840277309765924918, guid: 09e68ef64ec97b84398fb5806ca68d90, type: 3}
      propertyPath: m_LocalPosition.x
      value: 1.2346497
      objectReference: {fileID: 0}
    - target: {fileID: 5840277309765924918, guid: 09e68ef64ec97b84398fb5806ca68d90, type: 3}
      propertyPath: m_LocalPosition.y
      value: -40.28771
      objectReference: {fileID: 0}
    - target: {fileID: 5840277309765924918, guid: 09e68ef64ec97b84398fb5806ca68d90, type: 3}
      propertyPath: m_LocalPosition.z
      value: -16.139551
      objectReference: {fileID: 0}
    - target: {fileID: 5840277309765924918, guid: 09e68ef64ec97b84398fb5806ca68d90, type: 3}
      propertyPath: m_LocalRotation.w
      value: 1
      objectReference: {fileID: 0}
    - target: {fileID: 5840277309765924918, guid: 09e68ef64ec97b84398fb5806ca68d90, type: 3}
      propertyPath: m_LocalRotation.x
      value: -0
      objectReference: {fileID: 0}
    - target: {fileID: 5840277309765924918, guid: 09e68ef64ec97b84398fb5806ca68d90, type: 3}
      propertyPath: m_LocalRotation.y
      value: -0
      objectReference: {fileID: 0}
    - target: {fileID: 5840277309765924918, guid: 09e68ef64ec97b84398fb5806ca68d90, type: 3}
      propertyPath: m_LocalRotation.z
      value: -0
      objectReference: {fileID: 0}
    - target: {fileID: 5840277309765924918, guid: 09e68ef64ec97b84398fb5806ca68d90, type: 3}
      propertyPath: m_LocalEulerAnglesHint.x
      value: 0
      objectReference: {fileID: 0}
    - target: {fileID: 5840277309765924918, guid: 09e68ef64ec97b84398fb5806ca68d90, type: 3}
      propertyPath: m_LocalEulerAnglesHint.y
      value: 0
      objectReference: {fileID: 0}
    - target: {fileID: 5840277309765924918, guid: 09e68ef64ec97b84398fb5806ca68d90, type: 3}
      propertyPath: m_LocalEulerAnglesHint.z
      value: 0
      objectReference: {fileID: 0}
    - target: {fileID: 5840277309765924919, guid: 09e68ef64ec97b84398fb5806ca68d90, type: 3}
      propertyPath: m_Name
      value: pared (3)
      objectReference: {fileID: 0}
    - target: {fileID: 5840277309950417350, guid: 09e68ef64ec97b84398fb5806ca68d90, type: 3}
      propertyPath: m_Mesh
      value: 
      objectReference: {fileID: 0}
    - target: {fileID: 5840277309950417353, guid: 09e68ef64ec97b84398fb5806ca68d90, type: 3}
      propertyPath: m_Mesh
      value: 
      objectReference: {fileID: 0}
    - target: {fileID: 5840277309950417355, guid: 09e68ef64ec97b84398fb5806ca68d90, type: 3}
      propertyPath: m_Mesh
      value: 
      objectReference: {fileID: 0}
    - target: {fileID: 5869724518294679624, guid: 09e68ef64ec97b84398fb5806ca68d90, type: 3}
      propertyPath: m_Mesh
      value: 
      objectReference: {fileID: 0}
    - target: {fileID: 6138064557322752076, guid: 09e68ef64ec97b84398fb5806ca68d90, type: 3}
      propertyPath: m_Mesh
      value: 
      objectReference: {fileID: 0}
    - target: {fileID: 6246609236143368230, guid: 09e68ef64ec97b84398fb5806ca68d90, type: 3}
      propertyPath: m_Mesh
      value: 
      objectReference: {fileID: 0}
    - target: {fileID: 6310255778262155317, guid: 09e68ef64ec97b84398fb5806ca68d90, type: 3}
      propertyPath: m_Mesh
      value: 
      objectReference: {fileID: 0}
    - target: {fileID: 6412537580703060407, guid: 09e68ef64ec97b84398fb5806ca68d90, type: 3}
      propertyPath: m_Mesh
      value: 
      objectReference: {fileID: 0}
    - target: {fileID: 6486546182119365964, guid: 09e68ef64ec97b84398fb5806ca68d90, type: 3}
      propertyPath: m_Mesh
      value: 
      objectReference: {fileID: 0}
    - target: {fileID: 7071876757619697521, guid: 09e68ef64ec97b84398fb5806ca68d90, type: 3}
      propertyPath: m_Mesh
      value: 
      objectReference: {fileID: 0}
    - target: {fileID: 7113989270654553395, guid: 09e68ef64ec97b84398fb5806ca68d90, type: 3}
      propertyPath: m_Mesh
      value: 
      objectReference: {fileID: 0}
    - target: {fileID: 7216764248957668330, guid: 09e68ef64ec97b84398fb5806ca68d90, type: 3}
      propertyPath: m_Mesh
      value: 
      objectReference: {fileID: 0}
    - target: {fileID: 7367965780723890427, guid: 09e68ef64ec97b84398fb5806ca68d90, type: 3}
      propertyPath: m_Mesh
      value: 
      objectReference: {fileID: 0}
    - target: {fileID: 7891403553554700118, guid: 09e68ef64ec97b84398fb5806ca68d90, type: 3}
      propertyPath: m_Mesh
      value: 
      objectReference: {fileID: 0}
    - target: {fileID: 8221812492368805209, guid: 09e68ef64ec97b84398fb5806ca68d90, type: 3}
      propertyPath: m_Mesh
      value: 
      objectReference: {fileID: 0}
    - target: {fileID: 9001750434839381427, guid: 09e68ef64ec97b84398fb5806ca68d90, type: 3}
      propertyPath: m_Mesh
      value: 
      objectReference: {fileID: 0}
    - target: {fileID: 9005203934028022205, guid: 09e68ef64ec97b84398fb5806ca68d90, type: 3}
      propertyPath: m_Mesh
      value: 
      objectReference: {fileID: 0}
    - target: {fileID: 9195327364520257793, guid: 09e68ef64ec97b84398fb5806ca68d90, type: 3}
      propertyPath: m_Mesh
      value: 
      objectReference: {fileID: 0}
    m_RemovedComponents: []
  m_SourcePrefab: {fileID: 100100000, guid: 09e68ef64ec97b84398fb5806ca68d90, type: 3}
--- !u!4 &2163139385285171987 stripped
Transform:
  m_CorrespondingSourceObject: {fileID: 5840277309765924918, guid: 09e68ef64ec97b84398fb5806ca68d90, type: 3}
  m_PrefabInstance: {fileID: 5695319093151490853}
  m_PrefabAsset: {fileID: 0}
--- !u!1001 &8100752343099387916
PrefabInstance:
  m_ObjectHideFlags: 0
  serializedVersion: 2
  m_Modification:
    m_TransformParent: {fileID: 3303060532835310571}
    m_Modifications:
    - target: {fileID: 47801511122789366, guid: 09e68ef64ec97b84398fb5806ca68d90, type: 3}
      propertyPath: m_Mesh
      value: 
      objectReference: {fileID: 0}
    - target: {fileID: 70819479953546355, guid: 09e68ef64ec97b84398fb5806ca68d90, type: 3}
      propertyPath: m_Mesh
      value: 
      objectReference: {fileID: 0}
    - target: {fileID: 444430444012295145, guid: 09e68ef64ec97b84398fb5806ca68d90, type: 3}
      propertyPath: m_Mesh
      value: 
      objectReference: {fileID: 0}
    - target: {fileID: 541198899981690377, guid: 09e68ef64ec97b84398fb5806ca68d90, type: 3}
      propertyPath: m_Mesh
      value: 
      objectReference: {fileID: 0}
    - target: {fileID: 1060785314867407631, guid: 09e68ef64ec97b84398fb5806ca68d90, type: 3}
      propertyPath: m_Mesh
      value: 
      objectReference: {fileID: 0}
    - target: {fileID: 1237070708906975688, guid: 09e68ef64ec97b84398fb5806ca68d90, type: 3}
      propertyPath: m_Mesh
      value: 
      objectReference: {fileID: 0}
    - target: {fileID: 1632578509697476170, guid: 09e68ef64ec97b84398fb5806ca68d90, type: 3}
      propertyPath: m_Mesh
      value: 
      objectReference: {fileID: 0}
    - target: {fileID: 1761895029360525006, guid: 09e68ef64ec97b84398fb5806ca68d90, type: 3}
      propertyPath: m_Mesh
      value: 
      objectReference: {fileID: 0}
    - target: {fileID: 2309551244728742557, guid: 09e68ef64ec97b84398fb5806ca68d90, type: 3}
      propertyPath: m_Mesh
      value: 
      objectReference: {fileID: 0}
    - target: {fileID: 2428775196674691796, guid: 09e68ef64ec97b84398fb5806ca68d90, type: 3}
      propertyPath: m_Mesh
      value: 
      objectReference: {fileID: 0}
    - target: {fileID: 2593133312650469558, guid: 09e68ef64ec97b84398fb5806ca68d90, type: 3}
      propertyPath: m_Mesh
      value: 
      objectReference: {fileID: 0}
    - target: {fileID: 2683331274312702952, guid: 09e68ef64ec97b84398fb5806ca68d90, type: 3}
      propertyPath: m_Mesh
      value: 
      objectReference: {fileID: 0}
    - target: {fileID: 3344391245059772335, guid: 09e68ef64ec97b84398fb5806ca68d90, type: 3}
      propertyPath: m_Mesh
      value: 
      objectReference: {fileID: 0}
    - target: {fileID: 3362996391049572238, guid: 09e68ef64ec97b84398fb5806ca68d90, type: 3}
      propertyPath: m_Mesh
      value: 
      objectReference: {fileID: 0}
    - target: {fileID: 3436035171528533635, guid: 09e68ef64ec97b84398fb5806ca68d90, type: 3}
      propertyPath: m_Mesh
      value: 
      objectReference: {fileID: 0}
    - target: {fileID: 3757712375364850823, guid: 09e68ef64ec97b84398fb5806ca68d90, type: 3}
      propertyPath: m_Mesh
      value: 
      objectReference: {fileID: 0}
    - target: {fileID: 4012414254051491987, guid: 09e68ef64ec97b84398fb5806ca68d90, type: 3}
      propertyPath: m_Mesh
      value: 
      objectReference: {fileID: 0}
    - target: {fileID: 4670064486255298057, guid: 09e68ef64ec97b84398fb5806ca68d90, type: 3}
      propertyPath: m_Mesh
      value: 
      objectReference: {fileID: 0}
    - target: {fileID: 4786552619304022808, guid: 09e68ef64ec97b84398fb5806ca68d90, type: 3}
      propertyPath: m_Mesh
      value: 
      objectReference: {fileID: 0}
    - target: {fileID: 5094477869039055938, guid: 09e68ef64ec97b84398fb5806ca68d90, type: 3}
      propertyPath: m_Mesh
      value: 
      objectReference: {fileID: 0}
    - target: {fileID: 5104994659313044707, guid: 09e68ef64ec97b84398fb5806ca68d90, type: 3}
      propertyPath: m_Mesh
      value: 
      objectReference: {fileID: 0}
    - target: {fileID: 5170745761771056806, guid: 09e68ef64ec97b84398fb5806ca68d90, type: 3}
      propertyPath: m_Mesh
      value: 
      objectReference: {fileID: 0}
    - target: {fileID: 5495272362981263210, guid: 09e68ef64ec97b84398fb5806ca68d90, type: 3}
      propertyPath: m_Mesh
      value: 
      objectReference: {fileID: 0}
    - target: {fileID: 5800457077501005868, guid: 09e68ef64ec97b84398fb5806ca68d90, type: 3}
      propertyPath: m_Mesh
      value: 
      objectReference: {fileID: 0}
    - target: {fileID: 5840277309402921760, guid: 09e68ef64ec97b84398fb5806ca68d90, type: 3}
      propertyPath: m_Mesh
      value: 
      objectReference: {fileID: 0}
    - target: {fileID: 5840277309402921790, guid: 09e68ef64ec97b84398fb5806ca68d90, type: 3}
      propertyPath: m_Mesh
      value: 
      objectReference: {fileID: 0}
    - target: {fileID: 5840277309402921791, guid: 09e68ef64ec97b84398fb5806ca68d90, type: 3}
      propertyPath: m_Mesh
      value: 
      objectReference: {fileID: 0}
    - target: {fileID: 5840277309765924918, guid: 09e68ef64ec97b84398fb5806ca68d90, type: 3}
      propertyPath: m_RootOrder
      value: 1
      objectReference: {fileID: 0}
    - target: {fileID: 5840277309765924918, guid: 09e68ef64ec97b84398fb5806ca68d90, type: 3}
      propertyPath: m_LocalPosition.x
      value: -2.965351
      objectReference: {fileID: 0}
    - target: {fileID: 5840277309765924918, guid: 09e68ef64ec97b84398fb5806ca68d90, type: 3}
      propertyPath: m_LocalPosition.y
      value: -40.28771
      objectReference: {fileID: 0}
    - target: {fileID: 5840277309765924918, guid: 09e68ef64ec97b84398fb5806ca68d90, type: 3}
      propertyPath: m_LocalPosition.z
      value: -16.139551
      objectReference: {fileID: 0}
    - target: {fileID: 5840277309765924918, guid: 09e68ef64ec97b84398fb5806ca68d90, type: 3}
      propertyPath: m_LocalRotation.w
      value: 1
      objectReference: {fileID: 0}
    - target: {fileID: 5840277309765924918, guid: 09e68ef64ec97b84398fb5806ca68d90, type: 3}
      propertyPath: m_LocalRotation.x
      value: -0
      objectReference: {fileID: 0}
    - target: {fileID: 5840277309765924918, guid: 09e68ef64ec97b84398fb5806ca68d90, type: 3}
      propertyPath: m_LocalRotation.y
      value: -0
      objectReference: {fileID: 0}
    - target: {fileID: 5840277309765924918, guid: 09e68ef64ec97b84398fb5806ca68d90, type: 3}
      propertyPath: m_LocalRotation.z
      value: -0
      objectReference: {fileID: 0}
    - target: {fileID: 5840277309765924918, guid: 09e68ef64ec97b84398fb5806ca68d90, type: 3}
      propertyPath: m_LocalEulerAnglesHint.x
      value: 0
      objectReference: {fileID: 0}
    - target: {fileID: 5840277309765924918, guid: 09e68ef64ec97b84398fb5806ca68d90, type: 3}
      propertyPath: m_LocalEulerAnglesHint.y
      value: 0
      objectReference: {fileID: 0}
    - target: {fileID: 5840277309765924918, guid: 09e68ef64ec97b84398fb5806ca68d90, type: 3}
      propertyPath: m_LocalEulerAnglesHint.z
      value: 0
      objectReference: {fileID: 0}
    - target: {fileID: 5840277309765924919, guid: 09e68ef64ec97b84398fb5806ca68d90, type: 3}
      propertyPath: m_Name
      value: pared (4)
      objectReference: {fileID: 0}
    - target: {fileID: 5840277309950417350, guid: 09e68ef64ec97b84398fb5806ca68d90, type: 3}
      propertyPath: m_Mesh
      value: 
      objectReference: {fileID: 0}
    - target: {fileID: 5840277309950417353, guid: 09e68ef64ec97b84398fb5806ca68d90, type: 3}
      propertyPath: m_Mesh
      value: 
      objectReference: {fileID: 0}
    - target: {fileID: 5840277309950417355, guid: 09e68ef64ec97b84398fb5806ca68d90, type: 3}
      propertyPath: m_Mesh
      value: 
      objectReference: {fileID: 0}
    - target: {fileID: 5869724518294679624, guid: 09e68ef64ec97b84398fb5806ca68d90, type: 3}
      propertyPath: m_Mesh
      value: 
      objectReference: {fileID: 0}
    - target: {fileID: 6138064557322752076, guid: 09e68ef64ec97b84398fb5806ca68d90, type: 3}
      propertyPath: m_Mesh
      value: 
      objectReference: {fileID: 0}
    - target: {fileID: 6246609236143368230, guid: 09e68ef64ec97b84398fb5806ca68d90, type: 3}
      propertyPath: m_Mesh
      value: 
      objectReference: {fileID: 0}
    - target: {fileID: 6310255778262155317, guid: 09e68ef64ec97b84398fb5806ca68d90, type: 3}
      propertyPath: m_Mesh
      value: 
      objectReference: {fileID: 0}
    - target: {fileID: 6412537580703060407, guid: 09e68ef64ec97b84398fb5806ca68d90, type: 3}
      propertyPath: m_Mesh
      value: 
      objectReference: {fileID: 0}
    - target: {fileID: 6486546182119365964, guid: 09e68ef64ec97b84398fb5806ca68d90, type: 3}
      propertyPath: m_Mesh
      value: 
      objectReference: {fileID: 0}
    - target: {fileID: 7071876757619697521, guid: 09e68ef64ec97b84398fb5806ca68d90, type: 3}
      propertyPath: m_Mesh
      value: 
      objectReference: {fileID: 0}
    - target: {fileID: 7113989270654553395, guid: 09e68ef64ec97b84398fb5806ca68d90, type: 3}
      propertyPath: m_Mesh
      value: 
      objectReference: {fileID: 0}
    - target: {fileID: 7216764248957668330, guid: 09e68ef64ec97b84398fb5806ca68d90, type: 3}
      propertyPath: m_Mesh
      value: 
      objectReference: {fileID: 0}
    - target: {fileID: 7367965780723890427, guid: 09e68ef64ec97b84398fb5806ca68d90, type: 3}
      propertyPath: m_Mesh
      value: 
      objectReference: {fileID: 0}
    - target: {fileID: 7891403553554700118, guid: 09e68ef64ec97b84398fb5806ca68d90, type: 3}
      propertyPath: m_Mesh
      value: 
      objectReference: {fileID: 0}
    - target: {fileID: 8221812492368805209, guid: 09e68ef64ec97b84398fb5806ca68d90, type: 3}
      propertyPath: m_Mesh
      value: 
      objectReference: {fileID: 0}
    - target: {fileID: 9001750434839381427, guid: 09e68ef64ec97b84398fb5806ca68d90, type: 3}
      propertyPath: m_Mesh
      value: 
      objectReference: {fileID: 0}
    - target: {fileID: 9005203934028022205, guid: 09e68ef64ec97b84398fb5806ca68d90, type: 3}
      propertyPath: m_Mesh
      value: 
      objectReference: {fileID: 0}
    - target: {fileID: 9195327364520257793, guid: 09e68ef64ec97b84398fb5806ca68d90, type: 3}
      propertyPath: m_Mesh
      value: 
      objectReference: {fileID: 0}
    m_RemovedComponents: []
  m_SourcePrefab: {fileID: 100100000, guid: 09e68ef64ec97b84398fb5806ca68d90, type: 3}
--- !u!4 &2407017952747784250 stripped
Transform:
  m_CorrespondingSourceObject: {fileID: 5840277309765924918, guid: 09e68ef64ec97b84398fb5806ca68d90, type: 3}
  m_PrefabInstance: {fileID: 8100752343099387916}
  m_PrefabAsset: {fileID: 0}
