%YAML 1.1
%TAG !u! tag:unity3d.com,2011:
--- !u!114 &11400000
MonoBehaviour:
  m_ObjectHideFlags: 0
  m_CorrespondingSourceObject: {fileID: 0}
  m_PrefabInstance: {fileID: 0}
  m_PrefabAsset: {fileID: 0}
  m_GameObject: {fileID: 0}
  m_Enabled: 1
  m_EditorHideFlags: 0
  m_Script: {fileID: -1893448595, guid: a040fb66244a7f54289914d98ea4ef7d, type: 3}
  m_Name: macro2
  m_EditorClassIdentifier: 
  _data:
    _json: '{"graph":{"variables":{"collection":{"$content":[],"$version":"A"},"$version":"A"},"controlInputDefinitions":[],"controlOutputDefinitions":[],"valueInputDefinitions":[],"valueOutputDefinitions":[],"title":null,"summary":null,"pan":{"x":-264.1028,"y":134.2339},"zoom":1.0,"elements":[{"coroutine":false,"defaultValues":{},"position":{"x":-441.0,"y":-481.0},"guid":"1904cf96-96a1-4744-9ed3-dd4c7e149e82","$version":"A","$type":"Bolt.Start"},{"member":{"name":"deltaTime","parameterTypes":null,"targetType":"UnityEngine.Time","targetTypeName":"UnityEngine.Time","$version":"A"},"defaultValues":{},"position":{"x":148.0,"y":262.0},"guid":"d66ba03f-f402-4fd8-aed0-5b0e73aa6a73","$version":"A","$type":"Bolt.GetMember","$id":"11"},{"defaultValues":{},"position":{"x":188.0,"y":83.0},"guid":"df1e4e8c-fdc9-4fdc-9385-184803652d44","$version":"A","$type":"Bolt.GenericMultiply","$id":"14"},{"chainable":false,"member":{"name":"GetAxis","parameterTypes":["System.String"],"targetType":"UnityEngine.Input","targetTypeName":"UnityEngine.Input","$version":"A"},"defaultValues":{"%axisName":{"$content":"Horizontal","$type":"System.String"}},"position":{"x":-105.0,"y":83.0},"guid":"4087b5e1-72b6-42a6-ba24-8dfb06d7a022","$version":"A","$type":"Bolt.InvokeMember","$id":"16"},{"specifyFallback":false,"kind":"Object","defaultValues":{"name":{"$content":"velRotacion","$type":"System.String"},"object":null},"position":{"x":-103.0,"y":265.0},"guid":"472195bf-5e2a-475c-9141-b997a1c614d7","$version":"A","$type":"Bolt.GetVariable","$id":"19"},{"chainable":false,"member":{"name":"GetAxis","parameterTypes":["System.String"],"targetType":"UnityEngine.Input","targetTypeName":"UnityEngine.Input","$version":"A"},"defaultValues":{"%axisName":{"$content":"Vertical","$type":"System.String"}},"position":{"x":-778.0,"y":-195.0},"guid":"3d2567d4-a230-474c-ab70-3135994af824","$version":"A","$type":"Bolt.InvokeMember","$id":"21"},{"member":{"name":"deltaTime","parameterTypes":null,"targetType":"UnityEngine.Time","targetTypeName":"UnityEngine.Time","$version":"A"},"defaultValues":{},"position":{"x":-419.0,"y":156.0},"guid":"c5b2b117-aaa9-45d1-9ab5-7d6afb207ace","$version":"A","$type":"Bolt.GetMember","$id":"24"},{"defaultValues":{},"position":{"x":384.0,"y":78.0},"guid":"c455ad45-0e13-480e-8834-9a06d78df03b","$version":"A","$type":"Bolt.GenericMultiply","$id":"27"},{"defaultValues":{},"position":{"x":-434.0,"y":-89.0},"guid":"e8288c5b-2c35-4029-9c44-7ef897e536fa","$version":"A","$type":"Bolt.GenericMultiply","$id":"29"},{"defaultValues":{},"position":{"x":-205.0,"y":-98.0},"guid":"8e5fe42d-4541-4f1c-a3d4-74dd15eb6530","$version":"A","$type":"Bolt.GenericMultiply","$id":"31"},{"chainable":false,"member":{"name":"Rotate","parameterTypes":["System.Single","System.Single","System.Single"],"targetType":"UnityEngine.Transform","targetTypeName":"UnityEngine.Transform","$version":"A"},"defaultValues":{"target":null,"%xAngle":{"$content":0.0,"$type":"System.Single"},"%yAngle":{"$content":0.0,"$type":"System.Single"},"%zAngle":{"$content":0.0,"$type":"System.Single"}},"position":{"x":593.0,"y":-176.0},"guid":"49eab1f6-86a3-4e31-8b2b-fb039fce0ef7","$version":"A","$type":"Bolt.InvokeMember","$id":"33"},{"chainable":false,"member":{"name":"Translate","parameterTypes":["System.Single","System.Single","System.Single"],"targetType":"UnityEngine.Transform","targetTypeName":"UnityEngine.Transform","$version":"A"},"defaultValues":{"target":null,"%x":{"$content":0.0,"$type":"System.Single"},"%y":{"$content":0.0,"$type":"System.Single"},"%z":{"$content":0.0,"$type":"System.Single"}},"position":{"x":68.0,"y":-171.0},"guid":"99032830-74f9-466a-9b36-c7570894dbc1","$version":"A","$type":"Bolt.InvokeMember","$id":"36"},{"coroutine":false,"defaultValues":{},"position":{"x":-133.0,"y":-220.0},"guid":"62217f13-43e6-4d15-9da4-dc9de10f0883","$version":"A","$type":"Bolt.Update","$id":"39"},{"specifyFallback":false,"kind":"Object","defaultValues":{"name":{"$content":"velocidad","$type":"System.String"},"object":null},"position":{"x":-647.0,"y":75.0},"guid":"17ac5a55-5d95-4874-9493-fe0187499f70","$version":"A","$type":"Bolt.GetVariable","$id":"41"},{"sourceUnit":{"$ref":"36"},"sourceKey":"exit","destinationUnit":{"$ref":"33"},"destinationKey":"enter","guid":"4304db2b-d7ae-41b1-b4a4-46f0124fe44f","$type":"Bolt.ControlConnection"},{"sourceUnit":{"$ref":"39"},"sourceKey":"trigger","destinationUnit":{"$ref":"36"},"destinationKey":"enter","guid":"9e9b4253-8a74-4f05-bc45-a36e7b63f039","$type":"Bolt.ControlConnection"},{"sourceUnit":{"$ref":"14"},"sourceKey":"product","destinationUnit":{"$ref":"27"},"destinationKey":"a","guid":"5d77e1ea-c623-484c-96ea-ab89b80d7d02","$type":"Bolt.ValueConnection"},{"sourceUnit":{"$ref":"16"},"sourceKey":"result","destinationUnit":{"$ref":"14"},"destinationKey":"a","guid":"dda98769-1cc2-4609-8138-6b3fee0c8c4c","$type":"Bolt.ValueConnection"},{"sourceUnit":{"$ref":"21"},"sourceKey":"result","destinationUnit":{"$ref":"29"},"destinationKey":"a","guid":"5bdd9f2e-4dbc-401b-8bc4-70a076817335","$type":"Bolt.ValueConnection"},{"sourceUnit":{"$ref":"24"},"sourceKey":"value","destinationUnit":{"$ref":"31"},"destinationKey":"b","guid":"f98c5aa9-e58b-4877-b4d3-79384c1fad2c","$type":"Bolt.ValueConnection"},{"sourceUnit":{"$ref":"31"},"sourceKey":"product","destinationUnit":{"$ref":"36"},"destinationKey":"%z","guid":"fd4741b0-679d-4da2-a797-e72cddf543df","$type":"Bolt.ValueConnection"},{"sourceUnit":{"$ref":"29"},"sourceKey":"product","destinationUnit":{"$ref":"31"},"destinationKey":"a","guid":"6316917a-82c6-4205-b8f1-380b9ce9b8ca","$type":"Bolt.ValueConnection"},{"sourceUnit":{"$ref":"11"},"sourceKey":"value","destinationUnit":{"$ref":"27"},"destinationKey":"b","guid":"043a3b28-7d34-4fcd-9610-a371e64489e8","$type":"Bolt.ValueConnection"},{"sourceUnit":{"$ref":"27"},"sourceKey":"product","destinationUnit":{"$ref":"33"},"destinationKey":"%yAngle","guid":"c5935b3c-db85-4eb9-bd66-3b41646fe228","$type":"Bolt.ValueConnection"},{"sourceUnit":{"$ref":"41"},"sourceKey":"value","destinationUnit":{"$ref":"29"},"destinationKey":"b","guid":"707da316-8d09-40eb-ad50-2428478f2bfb","$type":"Bolt.ValueConnection"},{"sourceUnit":{"$ref":"19"},"sourceKey":"value","destinationUnit":{"$ref":"14"},"destinationKey":"b","guid":"04a11cb6-ae1a-477c-b82d-c7e84b109796","$type":"Bolt.ValueConnection"}],"$version":"A"}}'
    _objectReferences: []
